// Jest Snapshot v1, https://goo.gl/fbAQLP

exports[`should display the journal details when all possble journal details are loaded 1`] = `
<div
  itemScope={true}
  itemType="https://schema.org/Periodical"
>
  <section
    className="hero is-medium is-primary is-bold"
    style={Object {}}
  >
    <div
      className="hero-body"
    >
      <div
        className="container"
      >
        <PageMetadata
          description="Some description"
          title="Some name"
          url="https://flockademic.com/journal/arbitrary_id"
        />
        <h1
          className="title"
          itemProp="name"
        >
          Some name
        </h1>
        <h2
          className="subtitle"
          itemProp="headline"
        >
          Some headline
        </h2>
      </div>
    </div>
    <div
      className="hero-foot"
    >
      <nav
        aria-label="Journal navigation"
        className="tabs is-boxed is-right is-medium"
        role="navigation"
      >
        <div
          className="container"
        >
          <ul>
            <li>
              <Link
                replace={false}
                title="Configure your journal's name, description, etc."
                to="/journal/some_slug/manage"
              >
                Journal settings
              </Link>
            </li>
          </ul>
        </div>
      </nav>
    </div>
  </section>
  <section
    className="section"
  >
    <div
      className="container"
    >
      <div
        className="message is-warning content"
      >
        <div
          className="message-body"
        >
          Your journal is not public yet. You can make it public in the 
          <Link
            replace={false}
            title="Configure your journal's name, description, etc."
            to="/journal/some_slug/manage"
          >
            journal settings
          </Link>
          .
        </div>
      </div>
    </div>
  </section>
  <section
    className="section"
  >
    <div
      className="container"
    >
      <div
        className="columns"
      >
        <div
          className="column is-half-widescreen"
        >
          <p
            className="content"
            itemProp="description"
          >
            Some description
          </p>
        </div>
        <div
          className="column is-half-widescreen has-text-centered"
        />
      </div>
    </div>
  </section>
</div>
`;

exports[`should display the journal details when the minimal journal details are loaded 1`] = `
<div
  itemScope={true}
  itemType="https://schema.org/Periodical"
>
  <section
    className="hero is-medium is-primary is-bold"
    style={Object {}}
  >
    <div
      className="hero-body"
    >
      <div
        className="container"
      >
        <PageMetadata
          url="https://flockademic.com/journal/arbitrary_id"
        />
        <h1
          className="title"
          itemProp="name"
        />
      </div>
    </div>
    <div
      className="hero-foot"
    >
      <nav
        aria-label="Journal navigation"
        className="tabs is-boxed is-right is-medium"
        role="navigation"
      >
        <div
          className="container"
        >
          <ul>
            <li>
              <Link
                replace={false}
                title="Configure your journal's name, description, etc."
                to="/journal/some_identifier/manage"
              >
                Journal settings
              </Link>
            </li>
          </ul>
        </div>
      </nav>
    </div>
  </section>
  <section
    className="section"
  >
    <div
      className="container"
    >
      <div
        className="message is-warning content"
      >
        <div
          className="message-body"
        >
          Your journal does not have a title yet. Give it a name in the 
          <Link
            replace={false}
            title="Configure your journal's name, description, etc."
            to="/journal/some_identifier/manage"
          >
            journal settings
          </Link>
          .
        </div>
      </div>
    </div>
  </section>
  <section
    className="section"
  >
    <div
      className="container"
    >
      <div
        className="columns"
      >
        <div
          className="column is-half-widescreen"
        />
        <div
          className="column is-half-widescreen has-text-centered"
        />
      </div>
    </div>
  </section>
</div>
`;
